{
    "tables": {
        "DiaryPet": {
            "tableName": "DiaryPet",
            "schema": {
                "id": {
                    "allowNull": false,
                    "primaryKey": true,
                    "autoIncrement": true,
                    "field": "id",
                    "seqType": "Sequelize.INTEGER"
                },
                "content": {
                    "field": "content",
                    "seqType": "Sequelize.STRING(200)"
                },
                "createdAt": {
                    "allowNull": false,
                    "field": "createdAt",
                    "seqType": "Sequelize.DATE"
                },
                "updatedAt": {
                    "allowNull": false,
                    "field": "updatedAt",
                    "seqType": "Sequelize.DATE"
                },
                "petId": {
                    "allowNull": true,
                    "references": {
                        "model": "Pet",
                        "key": "id"
                    },
                    "onDelete": "cascade",
                    "onUpdate": "CASCADE",
                    "field": "petId",
                    "seqType": "Sequelize.INTEGER"
                }
            },
            "charset": "utf8",
            "indexes": []
        },
        "Feedback": {
            "tableName": "Feedback",
            "schema": {
                "id": {
                    "allowNull": false,
                    "primaryKey": true,
                    "autoIncrement": true,
                    "field": "id",
                    "seqType": "Sequelize.INTEGER"
                },
                "content": {
                    "field": "content",
                    "seqType": "Sequelize.STRING(200)"
                },
                "createdAt": {
                    "allowNull": false,
                    "field": "createdAt",
                    "seqType": "Sequelize.DATE"
                },
                "updatedAt": {
                    "allowNull": false,
                    "field": "updatedAt",
                    "seqType": "Sequelize.DATE"
                },
                "userId": {
                    "allowNull": true,
                    "references": {
                        "model": "User",
                        "key": "id"
                    },
                    "onDelete": "cascade",
                    "onUpdate": "CASCADE",
                    "field": "userId",
                    "seqType": "Sequelize.INTEGER"
                }
            },
            "charset": "utf8",
            "indexes": []
        },
        "ImagePet": {
            "tableName": "ImagePet",
            "schema": {
                "id": {
                    "allowNull": false,
                    "primaryKey": true,
                    "autoIncrement": true,
                    "field": "id",
                    "seqType": "Sequelize.INTEGER"
                },
                "url": {
                    "field": "url",
                    "seqType": "Sequelize.STRING(200)"
                },
                "description": {
                    "field": "description",
                    "seqType": "Sequelize.STRING(200)"
                },
                "createdAt": {
                    "allowNull": false,
                    "field": "createdAt",
                    "seqType": "Sequelize.DATE"
                },
                "updatedAt": {
                    "allowNull": false,
                    "field": "updatedAt",
                    "seqType": "Sequelize.DATE"
                },
                "petId": {
                    "allowNull": true,
                    "references": {
                        "model": "Pet",
                        "key": "id"
                    },
                    "onDelete": "cascade",
                    "onUpdate": "CASCADE",
                    "field": "petId",
                    "seqType": "Sequelize.INTEGER"
                }
            },
            "charset": "utf8",
            "indexes": []
        },
        "Notification": {
            "tableName": "Notification",
            "schema": {
                "id": {
                    "allowNull": false,
                    "primaryKey": true,
                    "autoIncrement": true,
                    "field": "id",
                    "seqType": "Sequelize.INTEGER"
                },
                "expoPushToken": {
                    "field": "expoPushToken",
                    "seqType": "Sequelize.STRING(200)"
                },
                "createdAt": {
                    "allowNull": false,
                    "field": "createdAt",
                    "seqType": "Sequelize.DATE"
                },
                "updatedAt": {
                    "allowNull": false,
                    "field": "updatedAt",
                    "seqType": "Sequelize.DATE"
                },
                "userId": {
                    "allowNull": true,
                    "references": {
                        "model": "User",
                        "key": "id"
                    },
                    "onDelete": "cascade",
                    "onUpdate": "CASCADE",
                    "field": "userId",
                    "seqType": "Sequelize.INTEGER"
                }
            },
            "charset": "utf8",
            "indexes": []
        },
        "Pet": {
            "tableName": "Pet",
            "schema": {
                "id": {
                    "allowNull": false,
                    "primaryKey": true,
                    "autoIncrement": true,
                    "field": "id",
                    "seqType": "Sequelize.INTEGER"
                },
                "name": {
                    "field": "name",
                    "seqType": "Sequelize.STRING(100)"
                },
                "age": {
                    "field": "age",
                    "seqType": "Sequelize.INTEGER"
                },
                "weight": {
                    "field": "weight",
                    "seqType": "Sequelize.DECIMAL"
                },
                "gender": {
                    "field": "gender",
                    "seqType": "Sequelize.ENUM('MALE', 'FEMALE')"
                },
                "avatar": {
                    "field": "avatar",
                    "seqType": "Sequelize.STRING(200)"
                },
                "species": {
                    "field": "species",
                    "seqType": "Sequelize.STRING(200)"
                },
                "createdAt": {
                    "allowNull": false,
                    "field": "createdAt",
                    "seqType": "Sequelize.DATE"
                },
                "updatedAt": {
                    "allowNull": false,
                    "field": "updatedAt",
                    "seqType": "Sequelize.DATE"
                },
                "userId": {
                    "allowNull": true,
                    "references": {
                        "model": "User",
                        "key": "id"
                    },
                    "onDelete": "cascade",
                    "onUpdate": "CASCADE",
                    "field": "userId",
                    "seqType": "Sequelize.INTEGER"
                }
            },
            "charset": "utf8",
            "indexes": []
        },
        "Post": {
            "tableName": "Post",
            "schema": {
                "id": {
                    "allowNull": false,
                    "primaryKey": true,
                    "autoIncrement": true,
                    "field": "id",
                    "seqType": "Sequelize.INTEGER"
                },
                "imageUrl": {
                    "field": "imageUrl",
                    "seqType": "Sequelize.STRING(100)"
                },
                "link": {
                    "field": "link",
                    "seqType": "Sequelize.STRING(100)"
                },
                "createdAt": {
                    "allowNull": false,
                    "field": "createdAt",
                    "seqType": "Sequelize.DATE"
                },
                "updatedAt": {
                    "allowNull": false,
                    "field": "updatedAt",
                    "seqType": "Sequelize.DATE"
                }
            },
            "charset": "utf8",
            "indexes": []
        },
        "PremiumUser": {
            "tableName": "PremiumUser",
            "schema": {
                "id": {
                    "allowNull": false,
                    "primaryKey": true,
                    "autoIncrement": true,
                    "field": "id",
                    "seqType": "Sequelize.INTEGER"
                },
                "phoneNumber": {
                    "field": "phoneNumber",
                    "seqType": "Sequelize.STRING(100)"
                },
                "createdAt": {
                    "allowNull": false,
                    "field": "createdAt",
                    "seqType": "Sequelize.DATE"
                },
                "updatedAt": {
                    "allowNull": false,
                    "field": "updatedAt",
                    "seqType": "Sequelize.DATE"
                }
            },
            "charset": "utf8",
            "indexes": []
        },
        "Schedule": {
            "tableName": "Schedule",
            "schema": {
                "id": {
                    "allowNull": false,
                    "primaryKey": true,
                    "autoIncrement": true,
                    "field": "id",
                    "seqType": "Sequelize.INTEGER"
                },
                "label": {
                    "field": "label",
                    "seqType": "Sequelize.STRING(100)"
                },
                "bgImage": {
                    "field": "bgImage",
                    "seqType": "Sequelize.STRING(100)"
                },
                "isDefault": {
                    "defaultValue": {
                        "value": false
                    },
                    "field": "isDefault",
                    "seqType": "Sequelize.BOOLEAN"
                },
                "createdAt": {
                    "allowNull": false,
                    "field": "createdAt",
                    "seqType": "Sequelize.DATE"
                },
                "updatedAt": {
                    "allowNull": false,
                    "field": "updatedAt",
                    "seqType": "Sequelize.DATE"
                },
                "userId": {
                    "allowNull": true,
                    "references": {
                        "model": "User",
                        "key": "id"
                    },
                    "onDelete": "cascade",
                    "onUpdate": "CASCADE",
                    "field": "userId",
                    "seqType": "Sequelize.INTEGER"
                },
                "scheduleCategoryId": {
                    "allowNull": true,
                    "references": {
                        "model": "ScheduleCategory",
                        "key": "id"
                    },
                    "onDelete": "cascade",
                    "onUpdate": "CASCADE",
                    "field": "scheduleCategoryId",
                    "seqType": "Sequelize.INTEGER"
                }
            },
            "charset": "utf8",
            "indexes": []
        },
        "ScheduleCategory": {
            "tableName": "ScheduleCategory",
            "schema": {
                "id": {
                    "allowNull": false,
                    "primaryKey": true,
                    "autoIncrement": true,
                    "field": "id",
                    "seqType": "Sequelize.INTEGER"
                },
                "label": {
                    "field": "label",
                    "seqType": "Sequelize.STRING(100)"
                },
                "bgImage": {
                    "field": "bgImage",
                    "seqType": "Sequelize.STRING(100)"
                },
                "isDefault": {
                    "defaultValue": {
                        "value": false
                    },
                    "field": "isDefault",
                    "seqType": "Sequelize.BOOLEAN"
                },
                "createdAt": {
                    "allowNull": false,
                    "field": "createdAt",
                    "seqType": "Sequelize.DATE"
                },
                "updatedAt": {
                    "allowNull": false,
                    "field": "updatedAt",
                    "seqType": "Sequelize.DATE"
                },
                "userId": {
                    "allowNull": true,
                    "references": {
                        "model": "User",
                        "key": "id"
                    },
                    "onDelete": "cascade",
                    "onUpdate": "CASCADE",
                    "field": "userId",
                    "seqType": "Sequelize.INTEGER"
                }
            },
            "charset": "utf8",
            "indexes": []
        },
        "ScheduleJob": {
            "tableName": "ScheduleJob",
            "schema": {
                "id": {
                    "allowNull": false,
                    "primaryKey": true,
                    "autoIncrement": true,
                    "field": "id",
                    "seqType": "Sequelize.INTEGER"
                },
                "label": {
                    "field": "label",
                    "seqType": "Sequelize.STRING(100)"
                },
                "icon": {
                    "field": "icon",
                    "seqType": "Sequelize.STRING(100)"
                },
                "bgColor": {
                    "field": "bgColor",
                    "seqType": "Sequelize.STRING(100)"
                },
                "isDefault": {
                    "defaultValue": {
                        "value": false
                    },
                    "field": "isDefault",
                    "seqType": "Sequelize.BOOLEAN"
                },
                "createdAt": {
                    "allowNull": false,
                    "field": "createdAt",
                    "seqType": "Sequelize.DATE"
                },
                "updatedAt": {
                    "allowNull": false,
                    "field": "updatedAt",
                    "seqType": "Sequelize.DATE"
                },
                "userId": {
                    "allowNull": true,
                    "references": {
                        "model": "User",
                        "key": "id"
                    },
                    "onDelete": "cascade",
                    "onUpdate": "CASCADE",
                    "field": "userId",
                    "seqType": "Sequelize.INTEGER"
                },
                "scheduleId": {
                    "allowNull": true,
                    "references": {
                        "model": "Schedule",
                        "key": "id"
                    },
                    "onDelete": "cascade",
                    "onUpdate": "CASCADE",
                    "field": "scheduleId",
                    "seqType": "Sequelize.INTEGER"
                },
                "scheduleCategoryId": {
                    "allowNull": true,
                    "references": {
                        "model": "ScheduleCategory",
                        "key": "id"
                    },
                    "onDelete": "cascade",
                    "onUpdate": "CASCADE",
                    "field": "scheduleCategoryId",
                    "seqType": "Sequelize.INTEGER"
                }
            },
            "charset": "utf8",
            "indexes": []
        },
        "Task": {
            "tableName": "Task",
            "schema": {
                "id": {
                    "allowNull": false,
                    "primaryKey": true,
                    "autoIncrement": true,
                    "field": "id",
                    "seqType": "Sequelize.INTEGER"
                },
                "timeType": {
                    "field": "timeType",
                    "seqType": "Sequelize.ENUM('DAILY', 'WEEKLY', 'MONTHLY', 'ANNUALLY')"
                },
                "dateTime": {
                    "field": "dateTime",
                    "seqType": "Sequelize.DATE"
                },
                "weekdays": {
                    "field": "weekdays",
                    "seqType": "Sequelize.STRING"
                },
                "days": {
                    "field": "days",
                    "seqType": "Sequelize.STRING(200)"
                },
                "pending": {
                    "defaultValue": {
                        "value": false
                    },
                    "field": "pending",
                    "seqType": "Sequelize.BOOLEAN"
                },
                "note": {
                    "field": "note",
                    "seqType": "Sequelize.STRING(200)"
                },
                "createdAt": {
                    "allowNull": false,
                    "field": "createdAt",
                    "seqType": "Sequelize.DATE"
                },
                "updatedAt": {
                    "allowNull": false,
                    "field": "updatedAt",
                    "seqType": "Sequelize.DATE"
                },
                "scheduleJobId": {
                    "allowNull": true,
                    "references": {
                        "model": "ScheduleJob",
                        "key": "id"
                    },
                    "onDelete": "cascade",
                    "onUpdate": "CASCADE",
                    "field": "scheduleJobId",
                    "seqType": "Sequelize.INTEGER"
                },
                "petId": {
                    "allowNull": true,
                    "references": {
                        "model": "Pet",
                        "key": "id"
                    },
                    "onDelete": "cascade",
                    "onUpdate": "CASCADE",
                    "field": "petId",
                    "seqType": "Sequelize.INTEGER"
                }
            },
            "charset": "utf8",
            "indexes": []
        },
        "User": {
            "tableName": "User",
            "schema": {
                "id": {
                    "allowNull": false,
                    "primaryKey": true,
                    "autoIncrement": true,
                    "field": "id",
                    "seqType": "Sequelize.INTEGER"
                },
                "name": {
                    "field": "name",
                    "seqType": "Sequelize.STRING(100)"
                },
                "email": {
                    "field": "email",
                    "seqType": "Sequelize.STRING(100)"
                },
                "password": {
                    "field": "password",
                    "seqType": "Sequelize.STRING(100)"
                },
                "phoneNumber": {
                    "field": "phoneNumber",
                    "seqType": "Sequelize.STRING(100)"
                },
                "address": {
                    "field": "address",
                    "seqType": "Sequelize.STRING(100)"
                },
                "avatar": {
                    "field": "avatar",
                    "seqType": "Sequelize.STRING(200)"
                },
                "type": {
                    "defaultValue": {
                        "value": "BASIC"
                    },
                    "field": "type",
                    "seqType": "Sequelize.ENUM('BASIC', 'PREMIUM')"
                },
                "isAdmin": {
                    "defaultValue": {
                        "value": false
                    },
                    "field": "isAdmin",
                    "seqType": "Sequelize.BOOLEAN"
                },
                "createdAt": {
                    "allowNull": false,
                    "field": "createdAt",
                    "seqType": "Sequelize.DATE"
                },
                "updatedAt": {
                    "allowNull": false,
                    "field": "updatedAt",
                    "seqType": "Sequelize.DATE"
                }
            },
            "charset": "utf8",
            "indexes": []
        },
        "WeightPet": {
            "tableName": "WeightPet",
            "schema": {
                "id": {
                    "allowNull": false,
                    "primaryKey": true,
                    "autoIncrement": true,
                    "field": "id",
                    "seqType": "Sequelize.INTEGER"
                },
                "weight": {
                    "field": "weight",
                    "seqType": "Sequelize.DECIMAL"
                },
                "createdAt": {
                    "allowNull": false,
                    "field": "createdAt",
                    "seqType": "Sequelize.DATE"
                },
                "updatedAt": {
                    "allowNull": false,
                    "field": "updatedAt",
                    "seqType": "Sequelize.DATE"
                },
                "petId": {
                    "allowNull": true,
                    "references": {
                        "model": "Pet",
                        "key": "id"
                    },
                    "onDelete": "cascade",
                    "onUpdate": "CASCADE",
                    "field": "petId",
                    "seqType": "Sequelize.INTEGER"
                }
            },
            "charset": "utf8",
            "indexes": []
        }
    },
    "revision": 1
}